{
  "servers": [
    {
      "host": "192.168.58.10",
      "username": "root",
      "password": "root"
    },
    {
      "host": "192.168.58.11",
      "username": "root",
      "password": "root"
    }
  ],
  "setupMongo": false,
  "setupNode": true,
  "nodeVersion": "0.10.41",
  "setupPhantom": false,
  "enableUploadProgressBar": true,
  "appName": "transcode",
  "app": ".",
  "env": {
    "ROOT_URL": "http://192.168.58.10",
    "MONGO_URL": "mongodb://192.168.58.20,192.168.58.21,192.168.58.22/transcode?replicaSet=rs0",
    "CLUSTER_DISCOVERY_URL": "mongodb://192.168.58.20,192.168.58.21,192.168.58.22/transcode?replicaSet=rs0",
    "CLUSTER_SERVICE": "web"
  },
  "deployCheckWaitTime": 15
}
